<?xml version="1.0" encoding="UTF-8" standalone="no"?>
<!-- Created with Inkscape (http://www.inkscape.org/) -->

<svg
   xmlns:dc="http://purl.org/dc/elements/1.1/"
   xmlns:cc="http://creativecommons.org/ns#"
   xmlns:rdf="http://www.w3.org/1999/02/22-rdf-syntax-ns#"
   xmlns:svg="http://www.w3.org/2000/svg"
   xmlns="http://www.w3.org/2000/svg"
   xmlns:sodipodi="http://sodipodi.sourceforge.net/DTD/sodipodi-0.dtd"
   xmlns:inkscape="http://www.inkscape.org/namespaces/inkscape"
   width="1.111111in"
   height="1.111111in"
   viewBox="0 0 99.999996 99.999994"
   id="svg2"
   version="1.1"
   inkscape:version="0.92.4 (5da689c313, 2019-01-14)"
   sodipodi:docname="grey.svg">
  <defs
     id="defs4" />
  <sodipodi:namedview
     id="base"
     pagecolor="#ffffff"
     bordercolor="#666666"
     borderopacity="1.0"
     inkscape:pageopacity="0.0"
     inkscape:pageshadow="2"
     inkscape:zoom="4.5950002"
     inkscape:cx="64.851071"
     inkscape:cy="41.163043"
     inkscape:document-units="in"
     inkscape:current-layer="layer1"
     showgrid="true"
     units="in"
     inkscape:showpageshadow="false"
     showguides="false"
     inkscape:window-width="1920"
     inkscape:window-height="1017"
     inkscape:window-x="-8"
     inkscape:window-y="-8"
     inkscape:window-maximized="1"
     objecttolerance="10000"
     inkscape:snap-bbox="true"
     guidetolerance="10000"
     inkscape:object-nodes="true"
     fit-margin-top="0"
     fit-margin-left="0"
     fit-margin-right="0"
     fit-margin-bottom="0"
     inkscape:bbox-nodes="true" />
  <metadata
     id="metadata7">
    <rdf:RDF>
      <cc:Work
         rdf:about="">
        <dc:format>image/svg+xml</dc:format>
        <dc:type
           rdf:resource="http://purl.org/dc/dcmitype/StillImage" />
        <dc:title></dc:title>
      </cc:Work>
    </rdf:RDF>
  </metadata>
  <g
     inkscape:label="Layer 1"
     inkscape:groupmode="layer"
     id="layer1"
     transform="translate(2.3841858e-7,-952.3622)">
    <ellipse
       style="opacity:1;fill:#7f7f7f;fill-opacity:1;stroke:#000000;stroke-width:5;stroke-linecap:butt;stroke-miterlimit:4;stroke-dasharray:none;stroke-opacity:1"
       id="path4139"
       cx="49.999996"
       cy="1002.3622"
       rx="47.5"
       ry="47.499992" />
    <g
       id="g1254"
       transform="matrix(0,0.56367853,-0.56367853,0,662.71911,970.9851)">
      <path
         inkscape:connector-curvature="0"
         id="path824"
         d="m 95.352145,1068.5644 -0.141984,36.8731"
         style="fill:none;stroke:#000000;stroke-width:5.14285707;stroke-linecap:round;stroke-linejoin:miter;stroke-miterlimit:4;stroke-dasharray:none;stroke-opacity:1" />
      <path
         inkscape:connector-curvature="0"
         id="path825"
         d="M 89.733394,1087.0009 H 124.35777"
         style="fill:none;stroke:#000000;stroke-width:5.14285707;stroke-linecap:butt;stroke-linejoin:miter;stroke-miterlimit:4;stroke-dasharray:none;stroke-opacity:1" />
      <ellipse
         ry="3.2917891"
         rx="3.1546314"
         cy="1087.001"
         cx="123.84323"
         id="path827"
         style="opacity:1;fill:#000000;fill-opacity:1;stroke:#000000;stroke-width:6.84514284;stroke-linecap:round;stroke-miterlimit:4;stroke-dasharray:none;stroke-opacity:1" />
      <rect
         y="1081.0242"
         x="-5.2768483"
         height="11.953654"
         width="101.19387"
         id="rect1232"
         style="opacity:1;fill:#000000;fill-opacity:1;stroke:none;stroke-width:5.14285707;stroke-linecap:square;stroke-linejoin:miter;stroke-miterlimit:4;stroke-dasharray:none;stroke-opacity:1;paint-order:markers fill stroke" />
      <rect
         transform="matrix(0.91751084,-0.39771077,0.91751084,0.39771077,0,0)"
         y="1356.1603"
         x="-1376.9674"
         height="15.032459"
         width="15.032459"
         id="rect1232-9"
         style="opacity:1;fill:#000000;fill-opacity:1;stroke:none;stroke-width:2.22283411;stroke-linecap:square;stroke-linejoin:miter;stroke-miterlimit:4;stroke-dasharray:none;stroke-opacity:1;paint-order:markers fill stroke" />
    </g>
  </g>
</svg>
